module backend-api-go-base

go 1.18

require (
	github.com/google/uuid v1.3.1
	gorm.io/driver/postgres v1.5.2
	gorm.io/gorm v1.25.4
)

require (
	github.com/jackc/pgpassfile v1.0.0 // indirect
	github.com/jackc/pgservicefile v0.0.0-20221227161230-091c0ba34f0a // indirect
	github.com/jackc/pgx/v5 v5.3.1 // indirect
	github.com/jinzhu/inflection v1.0.0 // indirect
	github.com/jinzhu/now v1.1.5 // indirect
	golang.org/x/crypto v0.8.0 // indirect
	golang.org/x/text v0.9.0 // indirect
)
